{
   "scheme_allUsers": {
        "type": "array",
        "items": {
            "type": "object",
            "required": [
                "id",
                "avatar",
                "email",
                "userName"
            ],
            "properties": {
                "id": {
                    "type": "integer"
                },
                "avatar": {
                    "type": "string"
                },
                "email": {
                    "type": "string"
                },
                "userName": {
                    "type": "string"
                }
            }
        }
    },
    "scheme_oneUser": {
        "type": "object",
        "required": [
            "id",
            "avatar",
            "email",
            "userName"
        ],
        "properties": {
            "id": {
                "type": "integer"
            },
            "avatar": {
                "type": "string"
            },
            "email": {
                "type": "string"
            },
            "userName": {
                "type": "string"
            }
        }
    },
    "scheme_authUser": {
        "type": "object",
        "required": [
            "user",
            "token"
        ],
        "properties": {
            "user": {
                "type": "object",
                "required": [
                    "id",
                    "avatar",
                    "email",
                    "userName"
                ],
                "properties": {
                    "id": {
                        "type": "integer"
                    },
                    "avatar": {
                        "type": "string"
                    },
                    "email": {
                        "type": "string"
                    },
                    "userName": {
                        "type": "string"
                    }
                }
            },
            "token": {
                "type": "object",
                "required": [
                    "accessToken",
                    "refreshToken"
                ],
                "properties": {
                    "accessToken": {
                        "type": "object",
                        "required": [
                            "token",
                            "expiresIn"
                        ],
                        "properties": {
                            "token": {
                                "type": "string"
                            },
                            "expiresIn": {
                                "type": "integer"
                            }
                        }
                    },
                    "refreshToken": {
                        "type": "string"
                    }
                }
            }
        }
    }
}